titolo,argomento,luogo,inizio,fine
macchiaioli l'avventua dell'arte mdoerna,arte,asti,19/11/21,01/05/22
milano drawing week,disegno mdoerno,milano,211120,211128
alle origini dello sport a milano, biglioteca sormani milano,211117,220131
atchugarry,arte contemporanea,milano,211027,220130
mario sironi, arte novecento,museo del novecento milano,210723,220322
manga heroes,fabbrica del vapore milano,210910,220102
il mistero di venezia di hayek alla biennale,castello di novara,211030,220313
wildlife photographer of year,fotografia naturalistica, ex spazio forma,211001,221231
mostra fumetti bonelli, fumetti,fabbrica del vapore,211008,220122
federico zeri e milano,arte,museo poldi pezzoli milano,211111,220107
ali nella notte, pipistrelli, museo di storia naturale pavia,210603,220109
steinberg,design,triennale milano,211015,220313
l'acquario e le ninfee dalla natura a monet, arte,acquario milano,211009,220130
