Titolo, Genere, Sinossi
Imperium,thriller politico, un agente fbi entra sotto copertura in un gruppo di neonazisti che vogliono fare un attentato negli usa. Usa "farseli amici" di Dale Carnegie. con Radcliff
full metal jacket,drammatico guerra, storia di una recluta che va in vietnam
Alien, fantascienza horror,un parassita che diventa mostro con le caratteristiche dell'organismo ospite
Alien scontro finale, fantascienza horror,
Alien 3, fantascienza horror,
Alien la clonazione, fantascienza horror,
Schegge di paura,thiller giudiziario, con righard gere e edward norton
