Titolo,Autore,Scatola
L'amatore del sigaro, davidoff zino,2103-1
A piena voce (poesia e racconti), Valdimir Majakovskij,2103-A
Altre inquisizioni, jorge luis borges,2102-b
ali,yukio mishima,2102-b
appleseed volume 1,aavv,2102-b
appleseed volume 4,aavv,2102-b
appleseed volume 3,aavv,2102-b
appleseed volume 2,aavv,2102-b
l'arte della scrittura drammaturgica, lajos egri,2102-b
fuori dal comune dietro le quinte della politica locale per capire il paese e costruire il futuro,elisa serafini,2102-a
i gemelli turtle alla ricerca di atlas,connnor boyak,2102-a
i gemelli turtle e il viaggio a surfilandia,connor boyack,2102-a
i gemelli turtle e la loro fantastica impresa teatrale,connor boyack,2102-a
i gemelli turtle e la matita meravigliosa, connor boyack,2102-a
i gemelli turtle e il mostro dell'isola di jekyll, connor boyack,2102-a
giovanni gentile la filosofia, sergio romano,2102-b
il gioco del go, pierre aroutcheff,2103-a
i gemelli turtle imparano la legge, connor boyack,2102-a
i gemelli turtle e i ristoranti a quattro ruote, connor boyack,2102-a
i gemelli turtle e la regola aurea, connor boyack,2102-a
giulio cesare, lucinao canfora,2103-a
giuseppe garibaldi,alfonso scirocco,2103-a
il grande ammiraglio storia e leggende del calabrese occhialì cristiano e rinnegato che divenne re, enzo ciconte, 2102-a
la grande depressione,murray newton rothbard,2103-a
haiku il fiore della poesia giapponese da basho all'ottocento, aavv, 2102-b
i ching il libro dei mutamenti,aavv,2104-a
il secondo anello del potere una  nuova tappa della straordinaio viaggio nel mondo del potere magico, carlos castaneda,2103-a
indebitalia in italia si può ancora morire i segreti del fisco che nessuno ti dice,edoardo montolli,2103-a
dell'indifferenza in materia di società,manlio sgalambro,2104-a
l'induismo, pio filippani ronconi,2103-a
io sparo che me la cavo , daniel b kapel carlo stagnaro,2103-a
itali mille anni dall'età feudale alla italia moderna e europea,rosario romeo,2103-a
io sparo che me la cavo quando essere armati è un diritto, david kopel carlo stagnaro,2102-b
l'italia scappata di mano, sergio romano,2102-a
kali l'arte del combattimento totale filippino, maurzio maltese,2103-a
l'ascesa di horus,dan abnett,2102-a
attacco all'iraq 100 ragioni segrete incredibili ovvie , umberto rapetto r di nunzio,2102-a
la legge zero,giovanni eccher valentino forlini,2103-a
leader di te stesso,roberto re,2102-a
lettere a julius evola 1930-1950,renè gnuénon,2102-a
lettera a una mico ebreo, sergio romano,2103-a
il libro dei cinque anelli, miyamoto musashi,2102-a
il libro della scala di maometto, aavv,2103-a
il libro tibetano dei morti,aavv,2103-a
ludi africani,ernst junger,2104-a
le ombre delle idee (il canto di circe il sigillo dei sigilli), giordano bruno, 2102-b
managinf oneself, peter f ducker,2103-a
magnestimso aniamel e magia, arthur schopenauer,2102-a
la  mia pipa sceglierla fumarla goderla conviverci tabecchi e miscele,giuseppe bozzini,2103-a
matrix economy conoscere i segreti del sistema per investire e fare business, roberto gorini,2102-a
manuale di zoologia fantastica, jorge luis borges e margarita guerrero,2104-a
manuale operativo per nave spaziale terra, r buckminster fuller,2102-a
massime,confucio,2104-a
il magico mondo ella pipa e i suoi tabacchi,antonio campisi,2103-a
il mistero tucidide, lucinao canfora, 2102-b
una biografia intellettuale milton friedman,antonio martino,2103-a
mistica ebraica testi delal tradizione segreta del giudaismo dal iii al xviii secolo, giulio busi e elena loewenthal,2104-a
le macchine del tempo l'orologio e la società 1500-1700, carlo maria cipolla,2103-a
il metodo distribuito il futuro dell'allenamento della forza e dell'oipertrofia muscolare , ado gruzza,2102-b
le meraviglie della natura, elemire zolla, 2103-a
memoria di un partigiano aristocratico, paolo brichetto arnaboldi,2103-a
il mio majakovskij,veronika polonskaja,2103-a
la via del samurai,yukio mishima,2102-a
tutta la vita, alberto savinio,2103-a
un tentativo di colmare l'abisso guido ceronetti sergio quinzio, 2102-a
verità segrete esposte in evidenza sincretismo e fantasia contemplazione ed esotericità, elemire zolla, 2104-a
vele e cannoni, carlo maria cipolla, 2103-a
il toscano guida al sigaro italiano,aavv,2103-a
tuono nel cielo, i segreti dell'acquisizione e dell'esercizio del potere, thoams clearly,2104-a
trump e la fine dell'american dream,sergio romano,2102-a
le tre vie, elemire zolla, 2103-a
tabacco per la mia pipa, giuseppe bozzini,2103-a
Eneide 2 volume, publio virgilio marone, 2103-a
ernst junger il comabttente l'operaio l'anarca, julius evola,2102-a
esl grammar a handbook for intermediate an advanced esl students, lester mark, 2102-b
elogio dell' ombra, jorge luis borges,2102-b
elogio del contante, leonardo facco,2102-a
l'educazione impossibile testimonianze control al scuola pubblica,von mises miglio rohtbard patterson spencer tucker,2102-b
eisenhorn l inquisitore zenos , dan abnett,2102-a
l'eleganza maschile guida pratica al perfetto guardaroba,giorgio mendicini,2102-a
costruire meglio perdere grasso apparire al meglio, stuart mcrobet, 2102-b
cronache di bustos domeq,jorge luis borges,2102-b
cavour il suo e il nostro tempo, rosario romeo,2102-a
copia pure il diritto di copiare nei saggi dell'anarchico, benjamin r tucket, 2102-a
caporetto una battaglia e un enigma,mario silvestri,2102-a
la biblioteca di babele,jorge luis borges,2102-b
il bitcoin standard,saifedean ammous,2102-a
bhagavadgta,aavv,2104-a
blockchain revolution how the technologu behind bitcoin is changing money business and the world,dan tapscott,2105-a
boschetto 125 una cronaca delle battaglie in trincea nel 1918, ernst junger,2104-a
buddhimo cristianesimo islamismo,gandhi,2104-a
il centodelitti il padre del noir all0italiana, giorgio scerbanenco,2104-a
considerazioni sulla via iniziatica, rene guenon,2104-a
carattere,julius evola,2104-a
come un talismano,guido ceronetti,2104-a
comemdia inferno, dante alighieri,2103-a
colpirne uno per educarne centro il caso microsoft e il futuro della concorrenza in europa, alberto mingardi,2103-a
conquistadores pirati mercatni la saga dell'argento spagnuolo, carlo maria cipolla, 2103-a
la crisi del mondo moderno, rene guenon,2103-a
craxi una vita un era politica, massimo pini,2103-a
la cifra, jorge luis borges,2104-a
clausewitz il prussiano la politica della guerra nell'equilibro europeo, gian enrico rusconi,2103-a
la consolazione, manlio sgalambro,2104-a
de radiu teoria delle armi amgiche,al kindi,2105-a
pagare meno tasse si puo tutti i consigli per alleggerie il tuo carico fiscale , gianluca massimo rosati, 2104-a
il parlalingue, il metodo universale per parlare fluentemente qualunque lingua in 3 mesi, benny lewis,2102-a
plain style a guide to written english, christopher lasch,2102-b
poesie, carlo michelstaeder,2104-a
il piccolo principe, antoine de saint exupery, 2102-b
pipa hobby, aldo pellissone,2103-a
per non dimenticare la memoria, guido ceronetti,2105-a
piccola enciclopedia dei vulcani,aavv,2103-a
dalla parte di lee la vera storia della guerra di secessione americana,alberto pasolini zanelli,2103-a
risorgimento e capitalismo,rosario romeo,2103-a
settecento riformatore vol 2, franco venturi,2102-a
poesie erotiche,costantino kavafis,2103-a
il prisma e lo specchio testi ritrovati 1919-1925,jorge luis borges,2103-a
polvere di luna, arthur c clarck,2102-a
schiavi fiscali, leonardo facco, 2102-a
scritti storici 1951-1987,rosario romeo,2103-a
segreti spie codice cifrati, corrado giustozzi, andrea monti enrico zimuel.,2103-a
settantacinque poesie, costantino kavafis,2103-a
scritti sull0esoterismo islamico e il taoismo,rene guenon,2105-a
sangue del mio sangue,giuseppe menconi,2103-a
la rivoluzione francese vol 1, francois furet denis richet,2102-b
la rivoluzione francese vol 2, francois furet denis richet,2102-b
i segreti esoterici,plutarco,2105-a
sscritutra veloce 3x come scrivere un libro ddi 100 pagine in 10 ore acnhe se parti da 0 e non hai tempo, giordano bruno,2103-a
il potere come usarlo con intelligenza, james hillman, 2103-a
reduce, giovanni lindo ferretti, 2102-a
il regalo,fumetto di diabolik,2102-a
il re del mondo, rene guenon,2103-a
i quattro pilastri della saggezza, buddha,2104-a
la questione settentrionale, gilberto oneto,2102-a
4 ore alla settimana ricchi e felici lavorando 10 volte meno, timothy ferriss,2102-a
silenzio di dio, sergio quinzio,2102-a
il sigaro toscano storia curiosita personaggi, aldo santini,2103-a
il signor sigaro dal toscano agli avana sceglierli conservarli fumarli, giuseppe bozzini,2103-a
la solitudine del satiro, ennio flaiano,2102-a
lo sterminio degli errori,nagarjuna,2103-a
lo stato liquido,vito foschi,2102-a
storia dell'eternita,jorge luis borges,2104-a
storia delle religioni e mitologia,raffalee pettazzoni,2102-a
prodi telecom & c il grande imbroglio continua, davide giacalone,2102-a
vita e morte di yukio mishima, henry scott stokes,2102-b
vincere|, jack welch,2102-a
vita da dandy gli antisnob nella societe nella storia nella letteratura,stefano lanuzza,2103-a
il villaggio delle sirene, carlon mellick III,2104
vita di milarepa i suoi delitti le sue prove la sua liberazione,aavv,2104-a
umberto magno la vera storia dell'imperatore della padania, leonardo facco,2102-a
ungern khan storia e mito del barone von urgen stenberg,aavv,2104-a
l'uomo nuovo, solzenicyn,2103-a
trappola infermante fumetto kriminal,aavv,2102-a
trattato dell'eta,manlio sgalambro,2104-a
traversata atlantica,ernst junger,2104-a
i mistici dell'occidente vol 1-2,elemire zolla,2104-a
modesta difesa delle case di piacere, mandeville,2102-b
la moneta di ferro, jorge juis borges,2102-a
moby dick,melville,2103-a
napoleone bonaparte,george lefebvre,2103-a
l'occhiale melanconico,guido ceronetti,2102-a
la nascita di venere, alberto savinio,2102-a
un'ombra fuggitiva di piacere, costantino kavafis,2103-a
nemico in pubblico 6 discorsi controlo il potere e una conclusione, leonardo facco,2103-
le ombre bianche, ennio flaiano,2102-a
la nicchia delel luci,al ghazali,2104-a
oltre il superuomo, scritti su friedrich noetzsche 1926-73, julius evola, 2105-a
noi e gli antichi perchè lo studio dei greci e dei romani giova all'intelligenza dei moderni, luciano canfora, 2102-a
orientalista guerrireto omaggio a pio filippani ronconi, angelo iacovella,2102-a
8 lezioni di leadership militare per imprenditori, obert kiyosaki,2103-a
an outline of english literature, g c thornley,2103-a
on writing autobiografia di un mestiiere, stephen king, 2102-a
on combat psicologia e fisiologia del combattimento in guerra e in pace, dave grossman,2103-a
la nostra ellade speciale la cittadella,aavv,2104-a
diario degli errori, ennio flaiano,2102-a
l dio dell'ebbrezza antologia dei moderni dionisiaci, elemire zolla, 2104-a
sulla questione degli ostaggi parigi 1941-1942, ernst junger,2103-a
il suicidio de l'anima, james hillmann,2104-a
studi sulal massoneria, rene guenon,2103-a
studi sull'induismo,rebe guenon,2103-a
storia facile dell'economia italian dal medioevo a oggi, carlo m cipolla, 2103-a
profilo hacker la scienza del criminel profiling applicata al mondo dello hacking, reaoul chiesta e silvio ciappi,nessuna scatola
la distanza poesie 1946-1996,guido ceronetti,2102-b
storia universale dell'infamia, jorge luis borges,2104-a
discesa all'ade e resurrezione, elemire zolla,2104-a
fare il rap manuale pratica per la scrittura, taiyo yaanouchi,2103-a
il dottor semmelweis, louis ferdinand celine,2102-a
fascimo, renzo de felice,2102-a
l'esoterismo di dante,rene guenon,2103-a
filippiche , demostene,2102-b
il figlio del sole, roberto sestito,2105-a
diario notturno,ennio flaiano,2102-a
l'esoterismo islamico,alberto ventura,2104-a
enciclopedia della memoria la prima enciclopedia dell'arte della memoria, giuseppe moriello, 2103-a
i falsi protocolli il complotto ebraio dalla russia di nicola II aa oggi,sergio romano,2103-a
elementi di stile di scrittura, william strunk jr, 2104-a
contro le tasse perchè abbattere le imposter si può si deve e non è affatto di destra, oscar giannino,2103-a
l'europa dell'illuminismo, ulrich im hof,2103-a
eclissi dell0intellettuale, elemire zolla, 2103-a
condoleezza rice una donna al vertice del potere, erich schaake,2103-a
commedia paradiso,dante alighieri,2103-a
forex freedom la liberta finanziairia con il forex,loriz zappalletto,2103-a
filomene e bauci,ernst junger,2105-a
la filosigia di epicuro de finibus, marco tullio cicerone, 2103-a
il filo della spada, charles de gaulle, 2102-a































